{
  "project": "web",
  "repository": "web",
  "endpointDev": "http://localhost:3001",
  "endpointProd": "http://localhost:3002",
  "dockerImage": "waproject/web",
  "dockerCredentials": "",
  "sentryDsn": "",
  "confirmed": true,
  "slug": "web"
}